{
  "images" : [
    {
      "filename" : "tagstore.png",
      "scale" : "1x",
      "idiom" : "universal"
    },
    {
      "scale" : "2x",
      "filename" : "tagstore@2x.png",
      "idiom" : "universal"
    },
    {
      "filename" : "tagstore@3x.png",
      "scale" : "3x",
      "idiom" : "universal"
    }
  ],
  "info" : {
    "version" : 1,
    "author" : "xcode"
  }
}