{
  "images" : [
    {
      "scale" : "1x",
      "idiom" : "universal",
      "filename" : "imgUpSide.png"
    },
    {
      "idiom" : "universal",
      "scale" : "2x",
      "filename" : "imgUpSide@2x.png"
    },
    {
      "filename" : "imgUpSide@3x.png",
      "scale" : "3x",
      "idiom" : "universal"
    }
  ],
  "info" : {
    "version" : 1,
    "author" : "xcode"
  }
}