{
  "images" : [
    {
      "idiom" : "universal",
      "scale" : "1x",
      "filename" : "storeselected.png"
    },
    {
      "filename" : "storeselected@2x.png",
      "scale" : "2x",
      "idiom" : "universal"
    },
    {
      "idiom" : "universal",
      "filename" : "storeselected@3x.png",
      "scale" : "3x"
    }
  ],
  "info" : {
    "version" : 1,
    "author" : "xcode"
  },
  "properties" : {
    "template-rendering-intent" : "original"
  }
}