{
  "images" : [
    {
      "filename" : "dth.png",
      "scale" : "1x",
      "idiom" : "universal"
    },
    {
      "idiom" : "universal",
      "filename" : "dth@2x.png",
      "scale" : "2x"
    },
    {
      "filename" : "dth@3x.png",
      "scale" : "3x",
      "idiom" : "universal"
    }
  ],
  "info" : {
    "version" : 1,
    "author" : "xcode"
  }
}